…
model3 = 
  lm(bwt ~ bhead + blength + babysex + bhead * blength + bhead * babysex + blength * babysex + bhead * blength * babysex, data = birthweight_data) %>% 
  broom::tidy()
```

``` r
cv_df = 
  crossv_mc(birthweight_data, 100)

cv_df %>% pull(train) %>% .[[1]] %>% as_tibble
```

    ## # A tibble: 3,473 x 20
    ##    babysex bhead blength   bwt delwt fincome frace gaweeks malform menarche
    ##    <fct>   <dbl>   <dbl> <dbl> <dbl>   <dbl> <fct>   <dbl> <fct>      <dbl>
    ##  1 female     34      51  3629   177      35 White    39.9 absent        13
    ##  2 male       34      48  3062   156      65 Black    25.9 absent        14
    ##  3 female     36      50  3345   148      85 White    39.9 absent        12
    ##  4 male       34      52  3062   157      55 White    40   absent        14
    ##  5 female     34      52  3374   156       5 White    41.6 absent        13
    ##  6 female     33      46  2523   126      96 Black    40.3 absent        14
    ##  7 male       36      52  3515   146      85 White    40.3 absent        11
    ##  8 male       33      50  3459   169      75 Black    40.7 absent        12
    ##  9 female     35      51  3317   130      55 White    43.4 absent        13
    ## 10 male       35      51  3459   146      55 White    39.4 absent        12
    ## # … with 3,463 more rows, and 10 more variables: mheight <dbl>,
    ## #   momage <dbl>, mrace <fct>, parity <dbl>, pnumlbw <dbl>, pnumsga <dbl>,
    ## #   ppbmi <dbl>, ppwt <dbl>, smoken <dbl>, wtgain <dbl>

``` r
cv_df %>% pull(test) %>% .[[1]] %>% as_tibble
```

    ## # A tibble: 869 x 20
    ##    babysex bhead blength   bwt delwt fincome frace gaweeks malform menarche
    ##    <fct>   <dbl>   <dbl> <dbl> <dbl>   <dbl> <fct>   <dbl> <fct>      <dbl>
    ##  1 male       33      52  3374   129      55 White    40.7 absent        12
    ##  2 female     33      49  2778   140       5 White    37.4 absent        12
    ##  3 female     35      48  3175   158      75 White    39.7 absent        13
    ##  4 female     35      53  3345   127      65 Black    39.7 absent        14
    ##  5 male       34      63  3175   143      25 White    41.9 absent        13
    ##  6 female     35      52  3289   135      55 White    40.6 absent        13
    ##  7 male       35      52  3232   121      75 Asian    42.3 absent        13
    ##  8 female     34      49  2948   135      75 White    42.7 absent        12
    ##  9 male       34      52  3118   130      75 White    41   absent        12
    ## 10 male       33      50  3175   168      25 White    40   absent        13
    ## # … with 859 more rows, and 10 more variables: mheight <dbl>,
    ## #   momage <dbl>, mrace <fct>, parity <dbl>, pnumlbw <dbl>, pnumsga <dbl>,
    ## #   ppbmi <dbl>, ppwt <dbl>, smoken <dbl>, wtgain <dbl>
…
